module gitlab.com/gitlab-org/terraform-provider-gitlab

go 1.19

require (
	github.com/hashicorp/go-cty v1.4.1-0.20200414143053-d3edf31b6320
	github.com/hashicorp/go-retryablehttp v0.7.2
	github.com/hashicorp/terraform-plugin-framework v1.1.1
	github.com/hashicorp/terraform-plugin-framework-validators v0.10.0
	github.com/hashicorp/terraform-plugin-go v0.14.3
	github.com/hashicorp/terraform-plugin-log v0.8.0
	github.com/hashicorp/terraform-plugin-mux v0.9.0
	github.com/hashicorp/terraform-plugin-sdk/v2 v2.25.0
	github.com/mitchellh/hashstructure/v2 v2.0.2
	github.com/onsi/gomega v1.27.1
	github.com/xanzy/go-gitlab v0.80.2
)

require (
	github.com/agext/levenshtein v1.2.2 // indirect
	github.com/apparentlymart/go-textseg/v13 v13.0.0 // indirect
	github.com/fatih/color v1.13.0 // indirect
	github.com/golang/protobuf v1.5.2 // indirect
	github.com/google/go-cmp v0.5.9 // indirect
	github.com/google/go-querystring v1.1.0 // indirect
	github.com/hashicorp/errwrap v1.0.0 // indirect
	github.com/hashicorp/go-checkpoint v0.5.0 // indirect
	github.com/hashicorp/go-cleanhttp v0.5.2 // indirect
	github.com/hashicorp/go-hclog v1.4.0 // indirect
	github.com/hashicorp/go-multierror v1.1.1 // indirect
	github.com/hashicorp/go-plugin v1.4.8 // indirect
	github.com/hashicorp/go-uuid v1.0.3 // indirect
	github.com/hashicorp/go-version v1.6.0 // indirect
	github.com/hashicorp/hc-install v0.5.0 // indirect
	github.com/hashicorp/hcl/v2 v2.16.1 // indirect
	github.com/hashicorp/logutils v1.0.0 // indirect
	github.com/hashicorp/terraform-exec v0.17.3 // indirect
	github.com/hashicorp/terraform-json v0.15.0 // indirect
	github.com/hashicorp/terraform-registry-address v0.1.0 // indirect
	github.com/hashicorp/terraform-svchost v0.0.0-20200729002733-f050f53b9734 // indirect
	github.com/hashicorp/yamux v0.0.0-20181012175058-2f1d1f20f75d // indirect
	github.com/mattn/go-colorable v0.1.12 // indirect
	github.com/mattn/go-isatty v0.0.14 // indirect
	github.com/mitchellh/copystructure v1.2.0 // indirect
	github.com/mitchellh/go-testing-interface v1.14.1 // indirect
	github.com/mitchellh/go-wordwrap v1.0.0 // indirect
	github.com/mitchellh/mapstructure v1.5.0 // indirect
	github.com/mitchellh/reflectwalk v1.0.2 // indirect
	github.com/oklog/run v1.0.0 // indirect
	github.com/vmihailenco/msgpack v4.0.4+incompatible // indirect
	github.com/vmihailenco/msgpack/v4 v4.3.12 // indirect
	github.com/vmihailenco/tagparser v0.1.2 // indirect
	github.com/zclconf/go-cty v1.12.1 // indirect
	golang.org/x/crypto v0.6.0 // indirect
	golang.org/x/mod v0.7.0 // indirect
	golang.org/x/net v0.7.0 // indirect
	golang.org/x/oauth2 v0.3.0 // indirect
	golang.org/x/sys v0.5.0 // indirect
	golang.org/x/text v0.7.0 // indirect
	golang.org/x/time v0.3.0 // indirect
	google.golang.org/appengine v1.6.7 // indirect
	google.golang.org/genproto v0.0.0-20220616135557-88e70c0c3a90 // indirect
	google.golang.org/grpc v1.51.0 // indirect
	google.golang.org/protobuf v1.28.1 // indirect
	gopkg.in/yaml.v3 v3.0.1 // indirect
)
